# Blender v2.64 (sub 0) OBJ File: 'dinoEgg.blend'
# www.blender.org
o Sphere
v -0.091730 1.787548 -0.000000
v -0.148612 1.775188 -0.000000
v -0.226784 1.740830 -0.000000
v -0.305670 1.685121 -0.000000
v -0.461503 1.547591 -0.000000
v -0.590079 1.374704 -0.000000
v -0.677517 1.187111 -0.000000
v -0.743196 0.992021 -0.000000
v -0.776883 0.796930 -0.000000
v -0.774670 0.609337 0.000000
v -0.739174 0.436450 0.000000
v -0.650074 0.260234 0.000000
v -0.490979 0.105599 0.000000
v -0.382939 0.038836 0.000000
v -0.209283 0.011235 0.000000
v -0.089968 1.787548 -0.017896
v -0.145756 1.775188 -0.028993
v -0.222427 1.740830 -0.044243
v -0.299797 1.685121 -0.059633
v -0.452636 1.547591 -0.090035
v -0.578741 1.374704 -0.115119
v -0.664499 1.187111 -0.132177
v -0.728916 0.992021 -0.144990
v -0.761955 0.796930 -0.151562
v -0.759785 0.609337 -0.151131
v -0.724971 0.436450 -0.144206
v -0.637583 0.260234 -0.126823
v -0.481545 0.105599 -0.095785
v -0.375581 0.038836 -0.074708
v -0.205262 0.011235 -0.040829
v -0.084748 1.787548 -0.035104
v -0.137299 1.775188 -0.056871
v -0.209521 1.740830 -0.086787
v -0.282402 1.685121 -0.116975
v -0.426373 1.547591 -0.176610
v -0.545162 1.374704 -0.225814
v -0.625944 1.187111 -0.259275
v -0.686624 0.992021 -0.284409
v -0.717746 0.796930 -0.297300
v -0.715702 0.609337 -0.296453
v -0.682907 0.436450 -0.282870
v -0.600590 0.260234 -0.248773
v -0.453605 0.105599 -0.187890
v -0.353789 0.038836 -0.146545
v -0.193352 0.011235 -0.080089
v -0.076271 1.787548 -0.050963
v -0.123566 1.775188 -0.082564
v -0.188564 1.740830 -0.125995
v -0.254155 1.685121 -0.169821
v -0.383726 1.547591 -0.256398
v -0.490633 1.374704 -0.327831
v -0.563335 1.187111 -0.376408
v -0.617945 0.992021 -0.412898
v -0.645954 0.796930 -0.431613
v -0.644115 0.609337 -0.430384
v -0.614600 0.436450 -0.410663
v -0.540517 0.260234 -0.361162
v -0.408234 0.105599 -0.272773
v -0.318402 0.038836 -0.212750
v -0.174013 0.011235 -0.116272
v -0.064863 1.787548 -0.064863
v -0.105084 1.775188 -0.105085
v -0.160360 1.740830 -0.160361
v -0.216141 1.685121 -0.216142
v -0.326332 1.547591 -0.326332
v -0.417249 1.374704 -0.417249
v -0.479077 1.187111 -0.479077
v -0.525519 0.992021 -0.525519
v -0.549339 0.796930 -0.549339
v -0.547774 0.609337 -0.547775
v -0.522675 0.436450 -0.522675
v -0.459671 0.260234 -0.459672
v -0.347174 0.105599 -0.347175
v -0.270779 0.038836 -0.270779
v -0.147986 0.011235 -0.147986
v -0.050963 1.787548 -0.076271
v -0.082564 1.775188 -0.123566
v -0.125994 1.740830 -0.188564
v -0.169821 1.685121 -0.254156
v -0.256397 1.547591 -0.383726
v -0.327830 1.374704 -0.490633
v -0.376408 1.187111 -0.563335
v -0.412898 0.992021 -0.617945
v -0.431613 0.796930 -0.645955
v -0.430383 0.609337 -0.644115
v -0.410663 0.436450 -0.614600
v -0.361161 0.260234 -0.540517
v -0.272773 0.105599 -0.408234
v -0.212749 0.038836 -0.318402
v -0.116271 0.011235 -0.174013
v -0.035104 1.787548 -0.084748
v -0.056871 1.775188 -0.137300
v -0.086786 1.740830 -0.209521
v -0.116975 1.685121 -0.282402
v -0.176609 1.547591 -0.426374
v -0.225813 1.374704 -0.545162
v -0.259274 1.187111 -0.625944
v -0.284409 0.992021 -0.686624
v -0.297300 0.796930 -0.717746
v -0.296453 0.609337 -0.715702
v -0.282869 0.436450 -0.682907
v -0.248772 0.260234 -0.600590
v -0.187889 0.105599 -0.453606
v -0.146544 0.038836 -0.353790
v -0.080089 0.011235 -0.193353
v -0.017896 1.787548 -0.089968
v -0.028992 1.775188 -0.145756
v -0.044243 1.740830 -0.222427
v -0.059633 1.685121 -0.299797
v -0.090035 1.547591 -0.452636
v -0.115119 1.374704 -0.578741
v -0.132177 1.187111 -0.664499
v -0.144990 0.992021 -0.728916
v -0.151562 0.796930 -0.761955
v -0.151130 0.609337 -0.759785
v -0.144205 0.436450 -0.724971
v -0.126823 0.260234 -0.637583
v -0.095785 0.105599 -0.481545
v -0.074707 0.038836 -0.375581
v -0.040829 0.011235 -0.205262
v 0.000000 1.787548 -0.091731
v 0.000000 1.775188 -0.148612
v 0.000000 1.740830 -0.226784
v 0.000000 1.685121 -0.305670
v 0.000000 1.547591 -0.461503
v 0.000000 1.374704 -0.590079
v 0.000000 1.187111 -0.677517
v 0.000000 0.992021 -0.743196
v 0.000000 0.796930 -0.776883
v 0.000000 0.609337 -0.774670
v 0.000000 0.436450 -0.739174
v 0.000000 0.260234 -0.650074
v 0.000000 0.105599 -0.490979
v 0.000000 0.038836 -0.382939
v 0.000000 0.011235 -0.209283
v 0.017896 1.787548 -0.089968
v 0.028993 1.775188 -0.145756
v 0.044244 1.740830 -0.222427
v 0.059634 1.685121 -0.299797
v 0.090035 1.547591 -0.452636
v 0.115119 1.374704 -0.578741
v 0.132177 1.187111 -0.664499
v 0.144991 0.992021 -0.728916
v 0.151563 0.796930 -0.761955
v 0.151131 0.609337 -0.759785
v 0.144206 0.436450 -0.724971
v 0.126823 0.260234 -0.637583
v 0.095786 0.105599 -0.481545
v 0.074708 0.038836 -0.375581
v 0.040829 0.011235 -0.205262
v 0.035104 1.787548 -0.084748
v 0.056872 1.775188 -0.137300
v 0.086787 1.740830 -0.209521
v 0.116975 1.685121 -0.282402
v 0.176610 1.547591 -0.426373
v 0.225814 1.374704 -0.545162
v 0.259275 1.187111 -0.625944
v 0.284409 0.992021 -0.686624
v 0.297301 0.796930 -0.717746
v 0.296454 0.609337 -0.715702
v 0.282870 0.436450 -0.682907
v 0.248773 0.260234 -0.600590
v 0.187890 0.105599 -0.453605
v 0.146545 0.038836 -0.353790
v 0.080090 0.011235 -0.193353
v 0.050963 1.787548 -0.076271
v 0.082565 1.775188 -0.123566
v 0.125995 1.740830 -0.188564
v 0.169822 1.685121 -0.254155
v 0.256398 1.547591 -0.383726
v 0.327831 1.374704 -0.490633
v 0.376409 1.187111 -0.563335
v 0.412898 0.992021 -0.617945
v 0.431613 0.796930 -0.645954
v 0.430384 0.609337 -0.644115
v 0.410663 0.436450 -0.614600
v 0.361162 0.260234 -0.540517
v 0.272774 0.105599 -0.408234
v 0.212750 0.038836 -0.318402
v 0.116272 0.011235 -0.174013
v 0.064864 1.787548 -0.064863
v 0.105085 1.775188 -0.105084
v 0.160361 1.740830 -0.160361
v 0.216142 1.685121 -0.216141
v 0.326332 1.547591 -0.326332
v 0.417249 1.374704 -0.417249
v 0.479077 1.187111 -0.479077
v 0.525519 0.992021 -0.525519
v 0.549339 0.796930 -0.549339
v 0.547775 0.609337 -0.547774
v 0.522675 0.436450 -0.522675
v 0.459672 0.260234 -0.459671
v 0.347175 0.105599 -0.347175
v 0.270779 0.038836 -0.270779
v 0.147986 0.011235 -0.147986
v 0.076272 1.787548 -0.050963
v 0.123567 1.775188 -0.082564
v 0.188565 1.740830 -0.125995
v 0.254156 1.685121 -0.169821
v 0.383726 1.547591 -0.256397
v 0.490633 1.374704 -0.327831
v 0.563335 1.187111 -0.376408
v 0.617945 0.992021 -0.412898
v 0.645955 0.796930 -0.431613
v 0.644115 0.609337 -0.430384
v 0.614601 0.436450 -0.410663
v 0.540517 0.260234 -0.361162
v 0.408234 0.105599 -0.272773
v 0.318402 0.038836 -0.212750
v 0.174013 0.011235 -0.116272
v 0.084748 1.787548 -0.035104
v 0.137300 1.775188 -0.056871
v 0.209522 1.740830 -0.086787
v 0.282403 1.685121 -0.116975
v 0.426374 1.547591 -0.176610
v 0.545163 1.374704 -0.225814
v 0.625944 1.187111 -0.259274
v 0.686624 0.992021 -0.284409
v 0.717746 0.796930 -0.297300
v 0.715702 0.609337 -0.296453
v 0.682908 0.436450 -0.282869
v 0.600590 0.260234 -0.248772
v 0.453606 0.105599 -0.187889
v 0.353790 0.038836 -0.146544
v 0.193353 0.011235 -0.080089
v 0.089968 1.787548 -0.017896
v 0.145757 1.775188 -0.028993
v 0.222427 1.740830 -0.044243
v 0.299797 1.685121 -0.059633
v 0.452636 1.547591 -0.090035
v 0.578741 1.374704 -0.115119
v 0.664499 1.187111 -0.132177
v 0.728916 0.992021 -0.144990
v 0.761956 0.796930 -0.151562
v 0.759785 0.609337 -0.151131
v 0.724971 0.436450 -0.144205
v 0.637583 0.260234 -0.126823
v 0.481545 0.105599 -0.095785
v 0.375581 0.038836 -0.074708
v 0.205262 0.011235 -0.040829
v 0.091731 1.787548 0.000000
v 0.148612 1.775188 -0.000000
v 0.226785 1.740830 0.000000
v 0.305670 1.685121 -0.000000
v 0.461503 1.547591 0.000000
v 0.590080 1.374704 0.000000
v 0.677517 1.187111 0.000000
v 0.743196 0.992021 0.000000
v 0.776883 0.796930 0.000000
v 0.774670 0.609337 0.000000
v 0.739174 0.436450 0.000000
v 0.650074 0.260234 0.000000
v 0.490979 0.105599 0.000000
v 0.382939 0.038836 0.000000
v 0.209284 0.011235 0.000000
v 0.089968 1.787548 0.017896
v 0.145757 1.775188 0.028993
v 0.222427 1.740830 0.044243
v 0.299797 1.685121 0.059633
v 0.452636 1.547591 0.090035
v 0.578741 1.374704 0.115119
v 0.664499 1.187111 0.132177
v 0.728916 0.992021 0.144990
v 0.761955 0.796930 0.151562
v 0.759785 0.609337 0.151131
v 0.724971 0.436450 0.144206
v 0.637583 0.260234 0.126823
v 0.481545 0.105599 0.095785
v 0.375581 0.038836 0.074708
v 0.205262 0.011235 0.040829
v 0.084748 1.787548 0.035104
v 0.137300 1.775188 0.056871
v 0.209522 1.740830 0.086787
v 0.282403 1.685121 0.116975
v 0.426374 1.547591 0.176610
v 0.545162 1.374704 0.225814
v 0.625944 1.187111 0.259275
v 0.686624 0.992021 0.284409
v 0.717746 0.796930 0.297300
v 0.715702 0.609337 0.296453
v 0.682907 0.436450 0.282870
v 0.600590 0.260234 0.248773
v 0.453606 0.105599 0.187890
v 0.353790 0.038836 0.146544
v 0.193353 0.011235 0.080089
v 0.076271 1.787548 0.050963
v 0.123567 1.775188 0.082564
v 0.188564 1.740830 0.125995
v 0.254156 1.685121 0.169821
v 0.383726 1.547591 0.256397
v 0.490633 1.374704 0.327831
v 0.563335 1.187111 0.376408
v 0.617945 0.992021 0.412898
v 0.645955 0.796930 0.431613
v 0.644115 0.609337 0.430384
v 0.614600 0.436450 0.410663
v 0.540517 0.260234 0.361162
v 0.408234 0.105599 0.272773
v 0.318402 0.038836 0.212750
v 0.174013 0.011235 0.116272
v 0.064864 1.787548 0.064863
v 0.105085 1.775188 0.105084
v 0.160361 1.740830 0.160361
v 0.216142 1.685121 0.216141
v 0.326332 1.547591 0.326332
v 0.417249 1.374704 0.417249
v 0.479077 1.187111 0.479077
v 0.525519 0.992021 0.525519
v 0.549339 0.796930 0.549339
v 0.547775 0.609337 0.547774
v 0.522675 0.436450 0.522675
v 0.459672 0.260234 0.459672
v 0.347175 0.105599 0.347175
v 0.270779 0.038836 0.270779
v 0.147986 0.011235 0.147986
v 0.050963 1.787548 0.076271
v 0.082565 1.775188 0.123566
v 0.125995 1.740830 0.188564
v 0.169821 1.685121 0.254155
v 0.256398 1.547591 0.383726
v 0.327831 1.374704 0.490633
v 0.376408 1.187111 0.563335
v 0.412898 0.992021 0.617945
v 0.431613 0.796930 0.645955
v 0.430384 0.609337 0.644115
v 0.410663 0.436450 0.614600
v 0.361162 0.260234 0.540517
v 0.272773 0.105599 0.408234
v 0.212750 0.038836 0.318402
v 0.116272 0.011235 0.174013
v 0.000000 0.000530 0.000000
v 0.035104 1.787548 0.084748
v 0.056872 1.775188 0.137299
v 0.086787 1.740830 0.209521
v 0.116975 1.685121 0.282402
v 0.176610 1.547591 0.426373
v 0.225814 1.374704 0.545162
v 0.259275 1.187111 0.625944
v 0.284409 0.992021 0.686624
v 0.297300 0.796930 0.717746
v 0.296454 0.609337 0.715702
v 0.282870 0.436450 0.682907
v 0.248773 0.260234 0.600590
v 0.187890 0.105599 0.453605
v 0.146545 0.038836 0.353790
v 0.080090 0.011235 0.193353
v 0.017896 1.787548 0.089968
v 0.028993 1.775188 0.145756
v 0.044244 1.740830 0.222427
v 0.059633 1.685121 0.299797
v 0.090035 1.547591 0.452636
v 0.115119 1.374704 0.578741
v 0.132177 1.187111 0.664499
v 0.144990 0.992021 0.728916
v 0.151562 0.796930 0.761955
v 0.151131 0.609337 0.759785
v 0.144206 0.436450 0.724970
v 0.126823 0.260234 0.637583
v 0.095785 0.105599 0.481545
v 0.074708 0.038836 0.375581
v 0.040829 0.011235 0.205262
v 0.000000 1.787548 0.091731
v 0.000000 1.775188 0.148612
v 0.000000 1.740830 0.226784
v 0.000000 1.685121 0.305670
v 0.000000 1.547591 0.461503
v 0.000000 1.374704 0.590079
v 0.000000 1.187111 0.677517
v 0.000000 0.992021 0.743196
v 0.000000 0.796930 0.776883
v 0.000000 0.609337 0.774670
v 0.000000 0.436450 0.739173
v 0.000000 0.260234 0.650074
v 0.000000 0.105599 0.490979
v 0.000000 0.038836 0.382939
v 0.000000 0.011235 0.209283
v -0.017896 1.787548 0.089968
v -0.028993 1.775188 0.145756
v -0.044243 1.740830 0.222427
v -0.059633 1.685121 0.299797
v -0.090035 1.547591 0.452635
v -0.115119 1.374704 0.578741
v -0.132177 1.187111 0.664498
v -0.144990 0.992021 0.728916
v -0.151562 0.796930 0.761955
v -0.151130 0.609337 0.759785
v -0.144205 0.436450 0.724970
v -0.126823 0.260234 0.637583
v -0.095785 0.105599 0.481545
v -0.074707 0.038836 0.375581
v -0.040829 0.011235 0.205262
v -0.035104 1.787548 0.084748
v -0.056871 1.775188 0.137299
v -0.086786 1.740830 0.209521
v -0.116975 1.685121 0.282402
v -0.176609 1.547591 0.426373
v -0.225813 1.374704 0.545162
v -0.259274 1.187111 0.625944
v -0.284409 0.992021 0.686623
v -0.297300 0.796930 0.717746
v -0.296453 0.609337 0.715702
v -0.282869 0.436450 0.682907
v -0.248772 0.260234 0.600590
v -0.187889 0.105599 0.453605
v -0.146544 0.038836 0.353790
v -0.080089 0.011235 0.193353
v -0.050963 1.787548 0.076271
v -0.082564 1.775188 0.123566
v -0.125994 1.740830 0.188564
v -0.169821 1.685121 0.254155
v -0.256397 1.547591 0.383726
v -0.327830 1.374704 0.490633
v -0.376408 1.187111 0.563334
v -0.412897 0.992021 0.617945
v -0.431613 0.796930 0.645954
v -0.430383 0.609337 0.644115
v -0.410663 0.436450 0.614600
v -0.361161 0.260234 0.540516
v -0.272773 0.105599 0.408234
v -0.212749 0.038836 0.318402
v -0.116271 0.011235 0.174013
v -0.064863 1.787548 0.064863
v -0.105084 1.775188 0.105084
v -0.160360 1.740830 0.160361
v -0.216141 1.685121 0.216141
v -0.326332 1.547591 0.326332
v -0.417249 1.374704 0.417249
v -0.479077 1.187111 0.479077
v -0.525519 0.992021 0.525519
v -0.549339 0.796930 0.549339
v -0.547774 0.609337 0.547774
v -0.522674 0.436450 0.522674
v -0.459671 0.260234 0.459671
v -0.347174 0.105599 0.347174
v -0.270779 0.038836 0.270779
v -0.147985 0.011235 0.147986
v 0.000000 1.802133 0.000000
v -0.076271 1.787548 0.050963
v -0.123566 1.775188 0.082564
v -0.188564 1.740830 0.125994
v -0.254155 1.685121 0.169821
v -0.383726 1.547591 0.256397
v -0.490633 1.374704 0.327830
v -0.563334 1.187111 0.376408
v -0.617945 0.992021 0.412897
v -0.645954 0.796930 0.431613
v -0.644114 0.609337 0.430384
v -0.614600 0.436450 0.410663
v -0.540516 0.260234 0.361161
v -0.408234 0.105599 0.272773
v -0.318402 0.038836 0.212750
v -0.174012 0.011235 0.116272
v -0.084748 1.787548 0.035104
v -0.137299 1.775188 0.056871
v -0.209521 1.740830 0.086787
v -0.282402 1.685121 0.116975
v -0.426373 1.547591 0.176610
v -0.545162 1.374704 0.225813
v -0.625944 1.187111 0.259274
v -0.686623 0.992021 0.284409
v -0.717746 0.796930 0.297300
v -0.715702 0.609337 0.296453
v -0.682907 0.436450 0.282869
v -0.600590 0.260234 0.248772
v -0.453605 0.105599 0.187889
v -0.353789 0.038836 0.146544
v -0.193352 0.011235 0.080089
v -0.089968 1.787548 0.017896
v -0.145756 1.775188 0.028993
v -0.222426 1.740830 0.044243
v -0.299796 1.685121 0.059633
v -0.452635 1.547591 0.090035
v -0.578741 1.374704 0.115119
v -0.664498 1.187111 0.132177
v -0.728915 0.992021 0.144990
v -0.761955 0.796930 0.151562
v -0.759785 0.609337 0.151130
v -0.724970 0.436450 0.144205
v -0.637582 0.260234 0.126823
v -0.481544 0.105599 0.095785
v -0.375581 0.038836 0.074708
v -0.205262 0.011235 0.040829
vt 0.000000 0.000000
vt 1.000000 0.000000
vt 1.000000 1.000000
vt 0.000000 1.000000
vn -0.607257 -0.785241 -0.120762
vn -0.351909 -0.933378 -0.069979
vn -0.358806 -0.933378 0.000000
vn -0.619129 -0.785241 0.000000
vn -0.911100 0.370128 -0.181219
vn -0.951079 0.244179 -0.189154
vn -0.969695 0.244179 0.000000
vn -0.928953 0.370128 0.000000
vn -0.314493 0.949248 0.000000
vn -0.186438 0.982452 0.000000
vn -0.182867 0.982452 -0.036348
vn -0.308451 0.949248 -0.061342
vn -0.105380 -0.994201 -0.020936
vn -0.107456 -0.994201 0.000000
vn -0.977691 0.079043 -0.194464
vn -0.996857 0.079043 0.000000
vn -0.487228 0.867855 -0.096896
vn -0.496780 0.867855 0.000000
vn -0.975219 -0.106296 -0.193976
vn -0.994324 -0.106296 0.000000
vn -0.610279 0.782800 -0.121372
vn -0.622242 0.782800 0.000000
vn -0.927000 -0.326518 -0.184393
vn -0.945158 -0.326518 0.000000
vn -0.724784 0.673696 -0.144169
vn -0.738975 0.673696 0.000000
vn -0.793725 -0.587390 -0.157872
vn -0.809290 -0.587390 0.000000
vn -0.843928 0.509476 -0.167852
vn -0.860469 0.509476 0.000000
vn -0.920957 0.079043 -0.381481
vn -0.918638 -0.106296 -0.380505
vn -0.458968 0.867855 -0.190100
vn -0.574877 0.782800 -0.238105
vn -0.873226 -0.326518 -0.361705
vn -0.682730 0.673696 -0.282785
vn -0.747673 -0.587390 -0.309702
vn -0.794977 0.509476 -0.329264
vn -0.572008 -0.785241 -0.236915
vn -0.858241 0.370128 -0.355480
vn -0.331492 -0.933378 -0.137303
vn -0.895901 0.244179 -0.371075
vn -0.172246 0.982452 -0.071352
vn -0.290567 0.949248 -0.120334
vn -0.099277 -0.994201 -0.041108
vn -0.514786 -0.785241 -0.343974
vn -0.298349 -0.933378 -0.199347
vn -0.772393 0.370128 -0.516098
vn -0.806269 0.244179 -0.538743
vn -0.155004 0.982452 -0.103580
vn -0.261513 0.949248 -0.174718
vn -0.089328 -0.994201 -0.059694
vn -0.828852 0.079043 -0.553819
vn -0.413068 0.867855 -0.275979
vn -0.826746 -0.106296 -0.552416
vn -0.517380 0.782800 -0.345683
vn -0.785882 -0.326518 -0.525101
vn -0.614429 0.673696 -0.410535
vn -0.672872 -0.587390 -0.449599
vn -0.715445 0.509476 -0.478042
vn -0.668325 -0.326518 -0.668325
vn -0.572253 -0.587390 -0.572253
vn -0.522538 0.673696 -0.522538
vn -0.608448 0.509476 -0.608448
vn -0.437788 -0.785241 -0.437788
vn -0.656880 0.370128 -0.656880
vn -0.253731 -0.933378 -0.253731
vn -0.685690 0.244179 -0.685690
vn -0.131840 0.982452 -0.131840
vn -0.222388 0.949248 -0.222388
vn -0.075961 -0.994201 -0.075961
vn -0.704886 0.079043 -0.704886
vn -0.351268 0.867855 -0.351268
vn -0.703085 -0.106296 -0.703085
vn -0.439985 0.782800 -0.439985
vn -0.553819 0.079043 -0.828852
vn -0.552416 -0.106296 -0.826746
vn -0.275979 0.867855 -0.413068
vn -0.345683 0.782800 -0.517380
vn -0.525101 -0.326518 -0.785882
vn -0.410535 0.673696 -0.614429
vn -0.449599 -0.587390 -0.672872
vn -0.478042 0.509476 -0.715445
vn -0.343974 -0.785241 -0.514786
vn -0.516098 0.370128 -0.772393
vn -0.199347 -0.933378 -0.298349
vn -0.538743 0.244179 -0.806269
vn -0.103580 0.982452 -0.155004
vn -0.174718 0.949248 -0.261513
vn -0.059694 -0.994201 -0.089328
vn -0.236915 -0.785241 -0.572008
vn -0.137303 -0.933378 -0.331492
vn -0.355480 0.370128 -0.858241
vn -0.371075 0.244179 -0.895901
vn -0.071352 0.982452 -0.172246
vn -0.120334 0.949248 -0.290567
vn -0.041108 -0.994201 -0.099277
vn -0.381481 0.079043 -0.920988
vn -0.190100 0.867855 -0.458968
vn -0.380505 -0.106296 -0.918638
vn -0.238105 0.782800 -0.574877
vn -0.361705 -0.326518 -0.873226
vn -0.282785 0.673696 -0.682730
vn -0.309702 -0.587390 -0.747673
vn -0.329264 0.509476 -0.794977
vn -0.184393 -0.326518 -0.927000
vn -0.157872 -0.587390 -0.793725
vn -0.144169 0.673696 -0.724784
vn -0.167852 0.509476 -0.843928
vn -0.120762 -0.785241 -0.607257
vn -0.181219 0.370128 -0.911100
vn -0.069979 -0.933378 -0.351909
vn -0.189154 0.244179 -0.951079
vn -0.036348 0.982452 -0.182867
vn -0.061342 0.949248 -0.308451
vn -0.020936 -0.994201 -0.105380
vn -0.194464 0.079043 -0.977691
vn -0.096896 0.867855 -0.487228
vn -0.193976 -0.106296 -0.975219
vn -0.121372 0.782800 -0.610279
vn 0.000000 0.949248 -0.314493
vn 0.000000 0.867855 -0.496780
vn 0.000000 0.079043 -0.996857
vn 0.000000 -0.106296 -0.994324
vn 0.000000 0.782800 -0.622242
vn 0.000000 -0.326518 -0.945158
vn 0.000000 0.673696 -0.738975
vn 0.000000 -0.587390 -0.809290
vn 0.000000 0.509476 -0.860469
vn 0.000000 -0.785241 -0.619129
vn 0.000000 0.370128 -0.928953
vn 0.000000 -0.933378 -0.358806
vn 0.000000 0.244179 -0.969695
vn 0.000000 0.982452 -0.186438
vn 0.000000 -0.994201 -0.107456
vn 0.167852 0.509476 -0.843928
vn 0.181219 0.370128 -0.911100
vn 0.120762 -0.785241 -0.607257
vn 0.069979 -0.933378 -0.351909
vn 0.189154 0.244179 -0.951079
vn 0.036348 0.982452 -0.182867
vn 0.061342 0.949248 -0.308451
vn 0.020936 -0.994201 -0.105380
vn 0.194464 0.079043 -0.977691
vn 0.096896 0.867855 -0.487228
vn 0.193976 -0.106296 -0.975219
vn 0.121372 0.782800 -0.610279
vn 0.184393 -0.326518 -0.927000
vn 0.144169 0.673696 -0.724784
vn 0.157872 -0.587390 -0.793725
vn 0.380505 -0.106296 -0.918638
vn 0.361705 -0.326518 -0.873226
vn 0.238105 0.782800 -0.574877
vn 0.282785 0.673696 -0.682730
vn 0.309702 -0.587390 -0.747673
vn 0.329264 0.509476 -0.794977
vn 0.236915 -0.785241 -0.572008
vn 0.355480 0.370128 -0.858241
vn 0.137303 -0.933378 -0.331492
vn 0.371075 0.244179 -0.895901
vn 0.071352 0.982452 -0.172246
vn 0.120334 0.949248 -0.290567
vn 0.041108 -0.994201 -0.099277
vn 0.381481 0.079043 -0.920957
vn 0.190100 0.867855 -0.458968
vn 0.199347 -0.933378 -0.298349
vn 0.059694 -0.994201 -0.089328
vn 0.538743 0.244179 -0.806269
vn 0.553819 0.079043 -0.828852
vn 0.174718 0.949248 -0.261513
vn 0.275979 0.867855 -0.413068
vn 0.552416 -0.106296 -0.826746
vn 0.345683 0.782800 -0.517380
vn 0.525101 -0.326518 -0.785882
vn 0.410535 0.673696 -0.614429
vn 0.449599 -0.587390 -0.672872
vn 0.478042 0.509476 -0.715445
vn 0.343974 -0.785241 -0.514786
vn 0.516098 0.370128 -0.772393
vn 0.103580 0.982452 -0.155004
vn 0.572253 -0.587390 -0.572253
vn 0.437788 -0.785241 -0.437788
vn 0.608448 0.509476 -0.608448
vn 0.656880 0.370128 -0.656880
vn 0.253731 -0.933378 -0.253731
vn 0.685690 0.244179 -0.685690
vn 0.131840 0.982452 -0.131840
vn 0.222388 0.949248 -0.222388
vn 0.075961 -0.994201 -0.075961
vn 0.704886 0.079043 -0.704886
vn 0.351268 0.867855 -0.351268
vn 0.703085 -0.106296 -0.703085
vn 0.439985 0.782800 -0.439985
vn 0.668325 -0.326518 -0.668325
vn 0.522538 0.673696 -0.522538
vn 0.826746 -0.106296 -0.552416
vn 0.785882 -0.326518 -0.525101
vn 0.517380 0.782800 -0.345683
vn 0.614429 0.673696 -0.410535
vn 0.672872 -0.587390 -0.449599
vn 0.715445 0.509476 -0.478042
vn 0.514786 -0.785241 -0.343974
vn 0.772393 0.370128 -0.516098
vn 0.298349 -0.933378 -0.199347
vn 0.806269 0.244179 -0.538743
vn 0.155004 0.982452 -0.103580
vn 0.261513 0.949248 -0.174718
vn 0.089328 -0.994201 -0.059694
vn 0.828852 0.079043 -0.553819
vn 0.413068 0.867855 -0.275979
vn 0.331492 -0.933378 -0.137303
vn 0.099277 -0.994201 -0.041108
vn 0.895901 0.244179 -0.371075
vn 0.920957 0.079043 -0.381481
vn 0.290567 0.949248 -0.120334
vn 0.458968 0.867855 -0.190100
vn 0.918638 -0.106296 -0.380505
vn 0.574877 0.782800 -0.238105
vn 0.873226 -0.326518 -0.361705
vn 0.682730 0.673696 -0.282785
vn 0.747673 -0.587390 -0.309702
vn 0.794977 0.509476 -0.329264
vn 0.572008 -0.785241 -0.236915
vn 0.858241 0.370128 -0.355480
vn 0.172246 0.982452 -0.071352
vn 0.793725 -0.587390 -0.157872
vn 0.607257 -0.785241 -0.120762
vn 0.843928 0.509476 -0.167852
vn 0.911100 0.370128 -0.181219
vn 0.351909 -0.933378 -0.069979
vn 0.951079 0.244179 -0.189154
vn 0.182867 0.982452 -0.036348
vn 0.308451 0.949248 -0.061342
vn 0.105380 -0.994201 -0.020936
vn 0.977691 0.079043 -0.194464
vn 0.487228 0.867855 -0.096896
vn 0.975219 -0.106296 -0.193976
vn 0.610279 0.782800 -0.121372
vn 0.927000 -0.326518 -0.184393
vn 0.724784 0.673696 -0.144169
vn 0.994324 -0.106296 0.000000
vn 0.945158 -0.326518 0.000000
vn 0.622242 0.782800 0.000000
vn 0.738975 0.673696 0.000000
vn 0.809290 -0.587390 0.000000
vn 0.860469 0.509476 0.000000
vn 0.619129 -0.785241 0.000000
vn 0.928953 0.370128 0.000000
vn 0.358806 -0.933378 0.000000
vn 0.969695 0.244179 0.000000
vn 0.186438 0.982452 0.000000
vn 0.314493 0.949248 0.000000
vn 0.107456 -0.994201 0.000000
vn 0.996857 0.079043 0.000000
vn 0.496780 0.867855 0.000000
vn 0.182867 0.982452 0.036348
vn 0.308451 0.949248 0.061342
vn 0.351909 -0.933378 0.069979
vn 0.105380 -0.994201 0.020936
vn 0.951079 0.244179 0.189154
vn 0.977691 0.079043 0.194464
vn 0.487228 0.867855 0.096896
vn 0.975219 -0.106296 0.193976
vn 0.610279 0.782800 0.121372
vn 0.927000 -0.326518 0.184393
vn 0.724784 0.673696 0.144169
vn 0.793725 -0.587390 0.157872
vn 0.843928 0.509476 0.167852
vn 0.607257 -0.785241 0.120762
vn 0.911100 0.370128 0.181219
vn 0.682730 0.673696 0.282785
vn 0.794977 0.509476 0.329264
vn 0.747673 -0.587390 0.309702
vn 0.572008 -0.785241 0.236915
vn 0.858241 0.370128 0.355480
vn 0.331492 -0.933378 0.137303
vn 0.895901 0.244179 0.371075
vn 0.172246 0.982452 0.071352
vn 0.290567 0.949248 0.120334
vn 0.099277 -0.994201 0.041108
vn 0.920957 0.079043 0.381481
vn 0.458968 0.867855 0.190100
vn 0.918638 -0.106296 0.380505
vn 0.574877 0.782800 0.238105
vn 0.873226 -0.326518 0.361705
vn 0.828852 0.079043 0.553819
vn 0.826746 -0.106296 0.552416
vn 0.413068 0.867855 0.275979
vn 0.517380 0.782800 0.345683
vn 0.785882 -0.326518 0.525101
vn 0.614429 0.673696 0.410535
vn 0.672872 -0.587390 0.449599
vn 0.715445 0.509476 0.478042
vn 0.514786 -0.785241 0.343974
vn 0.772393 0.370128 0.516098
vn 0.298349 -0.933378 0.199347
vn 0.806269 0.244179 0.538743
vn 0.155004 0.982452 0.103580
vn 0.261513 0.949248 0.174718
vn 0.089328 -0.994201 0.059694
vn 0.437788 -0.785241 0.437788
vn 0.253731 -0.933378 0.253731
vn 0.656880 0.370128 0.656880
vn 0.685690 0.244179 0.685690
vn 0.131840 0.982452 0.131840
vn 0.222388 0.949248 0.222388
vn 0.075961 -0.994201 0.075961
vn 0.704886 0.079043 0.704886
vn 0.351268 0.867855 0.351268
vn 0.703085 -0.106296 0.703085
vn 0.439985 0.782800 0.439985
vn 0.668325 -0.326518 0.668325
vn 0.522538 0.673696 0.522538
vn 0.572253 -0.587390 0.572253
vn 0.608448 0.509476 0.608448
vn 0.525101 -0.326518 0.785882
vn 0.449599 -0.587390 0.672872
vn 0.410535 0.673696 0.614429
vn 0.478042 0.509476 0.715445
vn 0.343974 -0.785241 0.514786
vn 0.516098 0.370128 0.772393
vn 0.199347 -0.933378 0.298349
vn 0.538743 0.244179 0.806269
vn 0.103580 0.982452 0.155004
vn 0.174718 0.949248 0.261513
vn 0.059694 -0.994201 0.089328
vn 0.553819 0.079043 0.828852
vn 0.275979 0.867855 0.413068
vn 0.552416 -0.106296 0.826746
vn 0.345683 0.782800 0.517380
vn 0.381481 0.079043 0.920957
vn 0.380505 -0.106296 0.918638
vn 0.190100 0.867855 0.458968
vn 0.238105 0.782800 0.574877
vn 0.361705 -0.326518 0.873226
vn 0.282785 0.673696 0.682730
vn 0.309702 -0.587390 0.747673
vn 0.329264 0.509476 0.794977
vn 0.236915 -0.785241 0.572008
vn 0.355480 0.370128 0.858241
vn 0.137303 -0.933378 0.331492
vn 0.371075 0.244179 0.895901
vn 0.071352 0.982452 0.172246
vn 0.120334 0.949248 0.290567
vn 0.041108 -0.994201 0.099277
vn 0.120762 -0.785241 0.607257
vn 0.069979 -0.933378 0.351909
vn 0.181219 0.370128 0.911100
vn 0.189154 0.244179 0.951079
vn 0.036348 0.982452 0.182867
vn 0.061342 0.949248 0.308451
vn 0.020936 -0.994201 0.105380
vn 0.194464 0.079043 0.977691
vn 0.096896 0.867855 0.487228
vn 0.193976 -0.106296 0.975219
vn 0.121372 0.782800 0.610279
vn 0.184393 -0.326518 0.927000
vn 0.144169 0.673696 0.724784
vn 0.157872 -0.587390 0.793725
vn 0.167852 0.509476 0.843928
vn 0.000000 -0.326518 0.945158
vn 0.000000 -0.587390 0.809290
vn 0.000000 0.673696 0.738975
vn 0.000000 0.509476 0.860469
vn 0.000000 -0.785241 0.619129
vn 0.000000 0.370128 0.928953
vn 0.000000 -0.933378 0.358806
vn 0.000000 0.244179 0.969695
vn 0.000000 0.982452 0.186438
vn 0.000000 0.949248 0.314493
vn 0.000000 -0.994201 0.107456
vn 0.000000 0.079043 0.996857
vn 0.000000 0.867855 0.496780
vn 0.000000 -0.106296 0.994324
vn 0.000000 0.782800 0.622242
vn -0.194464 0.079043 0.977691
vn -0.193976 -0.106296 0.975219
vn -0.096896 0.867855 0.487228
vn -0.121372 0.782800 0.610279
vn -0.184393 -0.326518 0.927000
vn -0.144169 0.673696 0.724784
vn -0.157872 -0.587390 0.793725
vn -0.167852 0.509476 0.843928
vn -0.120762 -0.785241 0.607257
vn -0.181219 0.370128 0.911100
vn -0.069979 -0.933378 0.351909
vn -0.189154 0.244179 0.951079
vn -0.036348 0.982452 0.182867
vn -0.061342 0.949248 0.308451
vn -0.020936 -0.994201 0.105380
vn -0.236915 -0.785241 0.572008
vn -0.137303 -0.933378 0.331492
vn -0.355480 0.370128 0.858241
vn -0.371075 0.244179 0.895901
vn -0.071352 0.982452 0.172246
vn -0.120334 0.949248 0.290567
vn -0.041108 -0.994201 0.099277
vn -0.381481 0.079043 0.920957
vn -0.190100 0.867855 0.458968
vn -0.380505 -0.106296 0.918638
vn -0.238105 0.782800 0.574877
vn -0.361705 -0.326518 0.873226
vn -0.282785 0.673696 0.682730
vn -0.309702 -0.587390 0.747673
vn -0.329264 0.509476 0.794977
vn -0.345683 0.782800 0.517380
vn -0.410535 0.673696 0.614429
vn -0.525101 -0.326518 0.785882
vn -0.449599 -0.587390 0.672872
vn -0.478042 0.509476 0.715445
vn -0.343974 -0.785241 0.514786
vn -0.516098 0.370128 0.772393
vn -0.199347 -0.933378 0.298349
vn -0.538743 0.244179 0.806269
vn -0.103580 0.982452 0.155004
vn -0.174718 0.949248 0.261513
vn -0.059694 -0.994201 0.089328
vn -0.553819 0.079043 0.828852
vn -0.275979 0.867855 0.413068
vn -0.552416 -0.106296 0.826746
vn -0.685690 0.244179 0.685690
vn -0.704886 0.079043 0.704886
vn -0.222388 0.949248 0.222388
vn -0.351268 0.867855 0.351268
vn -0.703085 -0.106296 0.703085
vn -0.439985 0.782800 0.439985
vn -0.668325 -0.326518 0.668325
vn -0.522538 0.673696 0.522538
vn -0.572253 -0.587390 0.572253
vn -0.608448 0.509476 0.608448
vn -0.437788 -0.785241 0.437788
vn -0.656880 0.370128 0.656880
vn -0.253731 -0.933378 0.253731
vn -0.131840 0.982452 0.131840
vn -0.075961 -0.994201 0.075961
vn -0.672872 -0.587390 0.449599
vn -0.514786 -0.785241 0.343974
vn -0.715445 0.509476 0.478042
vn -0.772393 0.370128 0.516098
vn -0.298349 -0.933378 0.199347
vn -0.806269 0.244179 0.538743
vn -0.155004 0.982452 0.103580
vn -0.261513 0.949248 0.174718
vn -0.089328 -0.994201 0.059694
vn -0.828852 0.079043 0.553819
vn -0.413068 0.867855 0.275979
vn -0.826746 -0.106296 0.552416
vn -0.517380 0.782800 0.345683
vn -0.785882 -0.326518 0.525101
vn -0.614429 0.673696 0.410535
vn -0.918638 -0.106296 0.380505
vn -0.873226 -0.326518 0.361705
vn -0.574877 0.782800 0.238105
vn -0.682730 0.673696 0.282785
vn -0.747673 -0.587390 0.309702
vn -0.794977 0.509476 0.329264
vn -0.572008 -0.785241 0.236915
vn -0.858241 0.370128 0.355480
vn -0.331492 -0.933378 0.137303
vn -0.895901 0.244179 0.371075
vn -0.172246 0.982452 0.071352
vn -0.290567 0.949248 0.120334
vn -0.099277 -0.994201 0.041108
vn -0.920957 0.079043 0.381481
vn -0.458968 0.867855 0.190100
vn -0.351909 -0.933378 0.069979
vn -0.105380 -0.994201 0.020936
vn -0.951079 0.244179 0.189184
vn -0.977691 0.079043 0.194464
vn -0.308451 0.949248 0.061342
vn -0.487228 0.867855 0.096896
vn -0.975219 -0.106296 0.193976
vn -0.610279 0.782800 0.121372
vn -0.927000 -0.326518 0.184393
vn -0.724784 0.673696 0.144169
vn -0.793725 -0.587390 0.157872
vn -0.843928 0.509476 0.167852
vn -0.607257 -0.785241 0.120762
vn -0.911100 0.370128 0.181219
vn -0.182867 0.982452 0.036348
vn 0.000000 -1.000000 0.000000
vn 0.000000 1.000000 0.000000
s 1
f 28/1/1 29/2/2 14/3/3
f 28/1/1 14/3/3 13/4/4
f 22/1/5 23/2/6 8/3/7
f 22/1/5 8/3/7 7/4/8
f 2/3/9 1/4/10 16/1/11
f 2/3/9 16/1/11 17/2/12
f 29/1/2 30/2/13 15/3/14
f 29/1/2 15/3/14 14/4/3
f 23/1/6 24/2/15 9/3/16
f 23/1/6 9/3/16 8/4/7
f 17/1/12 18/2/17 3/3/18
f 17/1/12 3/3/18 2/4/9
f 24/1/15 25/2/19 10/3/20
f 24/1/15 10/3/20 9/4/16
f 18/1/17 19/2/21 4/3/22
f 18/1/17 4/3/22 3/4/18
f 25/1/19 26/2/23 11/3/24
f 25/1/19 11/3/24 10/4/20
f 19/1/21 20/2/25 5/3/26
f 19/1/21 5/3/26 4/4/22
f 26/1/23 27/2/27 12/3/28
f 26/1/23 12/3/28 11/4/24
f 20/1/25 21/2/29 6/3/30
f 20/1/25 6/3/30 5/4/26
f 27/1/27 28/2/1 13/3/4
f 27/1/27 13/3/4 12/4/28
f 21/1/29 22/2/5 7/3/8
f 21/1/29 7/3/8 6/4/30
f 39/1/31 40/2/32 25/3/19
f 39/1/31 25/3/19 24/4/15
f 33/1/33 34/2/34 19/3/21
f 33/1/33 19/3/21 18/4/17
f 40/1/32 41/2/35 26/3/23
f 40/1/32 26/3/23 25/4/19
f 34/1/34 35/2/36 20/3/25
f 34/1/34 20/3/25 19/4/21
f 41/1/35 42/2/37 27/3/27
f 41/1/35 27/3/27 26/4/23
f 35/1/36 36/2/38 21/3/29
f 35/1/36 21/3/29 20/4/25
f 42/1/37 43/2/39 28/3/1
f 42/1/37 28/3/1 27/4/27
f 36/1/38 37/2/40 22/3/5
f 36/1/38 22/3/5 21/4/29
f 43/1/39 44/2/41 29/3/2
f 43/1/39 29/3/2 28/4/1
f 37/1/40 38/2/42 23/3/6
f 37/1/40 23/3/6 22/4/5
f 31/1/43 32/2/44 17/3/12
f 31/1/43 17/3/12 16/4/11
f 44/1/41 45/2/45 30/3/13
f 44/1/41 30/3/13 29/4/2
f 38/1/42 39/2/31 24/3/15
f 38/1/42 24/3/15 23/4/6
f 32/1/44 33/2/33 18/3/17
f 32/1/44 18/3/17 17/4/12
f 58/1/46 59/2/47 44/3/41
f 58/1/46 44/3/41 43/4/39
f 52/1/48 53/2/49 38/3/42
f 52/1/48 38/3/42 37/4/40
f 46/1/50 47/2/51 32/3/44
f 46/1/50 32/3/44 31/4/43
f 59/1/47 60/2/52 45/3/45
f 59/1/47 45/3/45 44/4/41
f 53/1/49 54/2/53 39/3/31
f 53/1/49 39/3/31 38/4/42
f 47/1/51 48/2/54 33/3/33
f 47/1/51 33/3/33 32/4/44
f 54/1/53 55/2/55 40/3/32
f 54/1/53 40/3/32 39/4/31
f 48/1/54 49/2/56 34/3/34
f 48/1/54 34/3/34 33/4/33
f 55/1/55 56/2/57 41/3/35
f 55/1/55 41/3/35 40/4/32
f 49/1/56 50/2/58 35/3/36
f 49/1/56 35/3/36 34/4/34
f 56/1/57 57/2/59 42/3/37
f 56/1/57 42/3/37 41/4/35
f 50/1/58 51/2/60 36/3/38
f 50/1/58 36/3/38 35/4/36
f 57/1/59 58/2/46 43/3/39
f 57/1/59 43/3/39 42/4/37
f 51/1/60 52/2/48 37/3/40
f 51/1/60 37/3/40 36/4/38
f 71/1/61 72/2/62 57/3/59
f 71/1/61 57/3/59 56/4/57
f 65/1/63 66/2/64 51/3/60
f 65/1/63 51/3/60 50/4/58
f 72/1/62 73/2/65 58/3/46
f 72/1/62 58/3/46 57/4/59
f 66/1/64 67/2/66 52/3/48
f 66/1/64 52/3/48 51/4/60
f 73/1/65 74/2/67 59/3/47
f 73/1/65 59/3/47 58/4/46
f 67/1/66 68/2/68 53/3/49
f 67/1/66 53/3/49 52/4/48
f 61/1/69 62/2/70 47/3/51
f 61/1/69 47/3/51 46/4/50
f 74/1/67 75/2/71 60/3/52
f 74/1/67 60/3/52 59/4/47
f 68/1/68 69/2/72 54/3/53
f 68/1/68 54/3/53 53/4/49
f 62/1/70 63/2/73 48/3/54
f 62/1/70 48/3/54 47/4/51
f 69/1/72 70/2/74 55/3/55
f 69/1/72 55/3/55 54/4/53
f 63/1/73 64/2/75 49/3/56
f 63/1/73 49/3/56 48/4/54
f 70/1/74 71/2/61 56/3/57
f 70/1/74 56/3/57 55/4/55
f 64/1/75 65/2/63 50/3/58
f 64/1/75 50/3/58 49/4/56
f 84/1/76 85/2/77 70/3/74
f 84/1/76 70/3/74 69/4/72
f 78/1/78 79/2/79 64/3/75
f 78/1/78 64/3/75 63/4/73
f 85/1/77 86/2/80 71/3/61
f 85/1/77 71/3/61 70/4/74
f 79/1/79 80/2/81 65/3/63
f 79/1/79 65/3/63 64/4/75
f 86/1/80 87/2/82 72/3/62
f 86/1/80 72/3/62 71/4/61
f 80/1/81 81/2/83 66/3/64
f 80/1/81 66/3/64 65/4/63
f 87/1/82 88/2/84 73/3/65
f 87/1/82 73/3/65 72/4/62
f 81/1/83 82/2/85 67/3/66
f 81/1/83 67/3/66 66/4/64
f 88/1/84 89/2/86 74/3/67
f 88/1/84 74/3/67 73/4/65
f 82/1/85 83/2/87 68/3/68
f 82/1/85 68/3/68 67/4/66
f 76/1/88 77/2/89 62/3/70
f 76/1/88 62/3/70 61/4/69
f 89/1/86 90/2/90 75/3/71
f 89/1/86 75/3/71 74/4/67
f 83/1/87 84/2/76 69/3/72
f 83/1/87 69/3/72 68/4/68
f 77/1/89 78/2/78 63/3/73
f 77/1/89 63/3/73 62/4/70
f 103/1/91 104/2/92 89/3/86
f 103/1/91 89/3/86 88/4/84
f 97/1/93 98/2/94 83/3/87
f 97/1/93 83/3/87 82/4/85
f 91/1/95 92/2/96 77/3/89
f 91/1/95 77/3/89 76/4/88
f 104/1/92 105/2/97 90/3/90
f 104/1/92 90/3/90 89/4/86
f 98/1/94 99/2/98 84/3/76
f 98/1/94 84/3/76 83/4/87
f 92/1/96 93/2/99 78/3/78
f 92/1/96 78/3/78 77/4/89
f 99/1/98 100/2/100 85/3/77
f 99/1/98 85/3/77 84/4/76
f 93/1/99 94/2/101 79/3/79
f 93/1/99 79/3/79 78/4/78
f 100/1/100 101/2/102 86/3/80
f 100/1/100 86/3/80 85/4/77
f 94/1/101 95/2/103 80/3/81
f 94/1/101 80/3/81 79/4/79
f 101/1/102 102/2/104 87/3/82
f 101/1/102 87/3/82 86/4/80
f 95/1/103 96/2/105 81/3/83
f 95/1/103 81/3/83 80/4/81
f 102/1/104 103/2/91 88/3/84
f 102/1/104 88/3/84 87/4/82
f 96/1/105 97/2/93 82/3/85
f 96/1/105 82/3/85 81/4/83
f 116/1/106 117/2/107 102/3/104
f 116/1/106 102/3/104 101/4/102
f 110/1/108 111/2/109 96/3/105
f 110/1/108 96/3/105 95/4/103
f 117/1/107 118/2/110 103/3/91
f 117/1/107 103/3/91 102/4/104
f 111/1/109 112/2/111 97/3/93
f 111/1/109 97/3/93 96/4/105
f 118/1/110 119/2/112 104/3/92
f 118/1/110 104/3/92 103/4/91
f 112/1/111 113/2/113 98/3/94
f 112/1/111 98/3/94 97/4/93
f 106/1/114 107/2/115 92/3/96
f 106/1/114 92/3/96 91/4/95
f 119/1/112 120/2/116 105/3/97
f 119/1/112 105/3/97 104/4/92
f 113/1/113 114/2/117 99/3/98
f 113/1/113 99/3/98 98/4/94
f 107/1/115 108/2/118 93/3/99
f 107/1/115 93/3/99 92/4/96
f 114/1/117 115/2/119 100/3/100
f 114/1/117 100/3/100 99/4/98
f 108/1/118 109/2/120 94/3/101
f 108/1/118 94/3/101 93/4/99
f 115/1/119 116/2/106 101/3/102
f 115/1/119 101/3/102 100/4/100
f 109/1/120 110/2/108 95/3/103
f 109/1/120 95/3/103 94/4/101
f 122/1/121 123/2/122 108/3/118
f 122/1/121 108/3/118 107/4/115
f 129/1/123 130/2/124 115/3/119
f 129/1/123 115/3/119 114/4/117
f 123/1/122 124/2/125 109/3/120
f 123/1/122 109/3/120 108/4/118
f 130/1/124 131/2/126 116/3/106
f 130/1/124 116/3/106 115/4/119
f 124/1/125 125/2/127 110/3/108
f 124/1/125 110/3/108 109/4/120
f 131/1/126 132/2/128 117/3/107
f 131/1/126 117/3/107 116/4/106
f 125/1/127 126/2/129 111/3/109
f 125/1/127 111/3/109 110/4/108
f 132/1/128 133/2/130 118/3/110
f 132/1/128 118/3/110 117/4/107
f 126/1/129 127/2/131 112/3/111
f 126/1/129 112/3/111 111/4/109
f 133/1/130 134/2/132 119/3/112
f 133/1/130 119/3/112 118/4/110
f 127/1/131 128/2/133 113/3/113
f 127/1/131 113/3/113 112/4/111
f 121/1/134 122/2/121 107/3/115
f 121/1/134 107/3/115 106/4/114
f 134/1/132 135/2/135 120/3/116
f 134/1/132 120/3/116 119/4/112
f 128/1/133 129/2/123 114/3/117
f 128/1/133 114/3/117 113/4/113
f 141/1/136 142/2/137 127/3/131
f 141/1/136 127/3/131 126/4/129
f 148/1/138 149/2/139 134/3/132
f 148/1/138 134/3/132 133/4/130
f 142/1/137 143/2/140 128/3/133
f 142/1/137 128/3/133 127/4/131
f 136/1/141 137/2/142 122/3/121
f 136/1/141 122/3/121 121/4/134
f 149/1/139 150/2/143 135/3/135
f 149/1/139 135/3/135 134/4/132
f 143/1/140 144/2/144 129/3/123
f 143/1/140 129/3/123 128/4/133
f 137/1/142 138/2/145 123/3/122
f 137/1/142 123/3/122 122/4/121
f 144/1/144 145/2/146 130/3/124
f 144/1/144 130/3/124 129/4/123
f 138/1/145 139/2/147 124/3/125
f 138/1/145 124/3/125 123/4/122
f 145/1/146 146/2/148 131/3/126
f 145/1/146 131/3/126 130/4/124
f 139/1/147 140/2/149 125/3/127
f 139/1/147 125/3/127 124/4/125
f 146/1/148 147/2/150 132/3/128
f 146/1/148 132/3/128 131/4/126
f 140/1/149 141/2/136 126/3/129
f 140/1/149 126/3/129 125/4/127
f 147/1/150 148/2/138 133/3/130
f 147/1/150 133/3/130 132/4/128
f 160/1/151 161/2/152 146/3/148
f 160/1/151 146/3/148 145/4/146
f 154/1/153 155/2/154 140/3/149
f 154/1/153 140/3/149 139/4/147
f 161/1/152 162/2/155 147/3/150
f 161/1/152 147/3/150 146/4/148
f 155/1/154 156/2/156 141/3/136
f 155/1/154 141/3/136 140/4/149
f 162/1/155 163/2/157 148/3/138
f 162/1/155 148/3/138 147/4/150
f 156/1/156 157/2/158 142/3/137
f 156/1/156 142/3/137 141/4/136
f 163/1/157 164/2/159 149/3/139
f 163/1/157 149/3/139 148/4/138
f 157/1/158 158/2/160 143/3/140
f 157/1/158 143/3/140 142/4/137
f 151/1/161 152/2/162 137/3/142
f 151/1/161 137/3/142 136/4/141
f 164/1/159 165/2/163 150/3/143
f 164/1/159 150/3/143 149/4/139
f 158/1/160 159/2/164 144/3/144
f 158/1/160 144/3/144 143/4/140
f 152/1/162 153/2/165 138/3/145
f 152/1/162 138/3/145 137/4/142
f 159/1/164 160/2/151 145/3/146
f 159/1/164 145/3/146 144/4/144
f 153/1/165 154/2/153 139/3/147
f 153/1/165 139/3/147 138/4/145
f 179/1/166 180/2/167 165/3/163
f 179/1/166 165/3/163 164/4/159
f 173/1/168 174/2/169 159/3/164
f 173/1/168 159/3/164 158/4/160
f 167/1/170 168/2/171 153/3/165
f 167/1/170 153/3/165 152/4/162
f 174/1/169 175/2/172 160/3/151
f 174/1/169 160/3/151 159/4/164
f 168/1/171 169/2/173 154/3/153
f 168/1/171 154/3/153 153/4/165
f 175/1/172 176/2/174 161/3/152
f 175/1/172 161/3/152 160/4/151
f 169/1/173 170/2/175 155/3/154
f 169/1/173 155/3/154 154/4/153
f 176/1/174 177/2/176 162/3/155
f 176/1/174 162/3/155 161/4/152
f 170/1/175 171/2/177 156/3/156
f 170/1/175 156/3/156 155/4/154
f 177/1/176 178/2/178 163/3/157
f 177/1/176 163/3/157 162/4/155
f 171/1/177 172/2/179 157/3/158
f 171/1/177 157/3/158 156/4/156
f 178/1/178 179/2/166 164/3/159
f 178/1/178 164/3/159 163/4/157
f 172/1/179 173/2/168 158/3/160
f 172/1/179 158/3/160 157/4/158
f 166/1/180 167/2/170 152/3/162
f 166/1/180 152/3/162 151/4/161
f 192/1/181 193/2/182 178/3/178
f 192/1/181 178/3/178 177/4/176
f 186/1/183 187/2/184 172/3/179
f 186/1/183 172/3/179 171/4/177
f 193/1/182 194/2/185 179/3/166
f 193/1/182 179/3/166 178/4/178
f 187/1/184 188/2/186 173/3/168
f 187/1/184 173/3/168 172/4/179
f 181/1/187 182/2/188 167/3/170
f 181/1/187 167/3/170 166/4/180
f 194/1/185 195/2/189 180/3/167
f 194/1/185 180/3/167 179/4/166
f 188/1/186 189/2/190 174/3/169
f 188/1/186 174/3/169 173/4/168
f 182/1/188 183/2/191 168/3/171
f 182/1/188 168/3/171 167/4/170
f 189/1/190 190/2/192 175/3/172
f 189/1/190 175/3/172 174/4/169
f 183/1/191 184/2/193 169/3/173
f 183/1/191 169/3/173 168/4/171
f 190/1/192 191/2/194 176/3/174
f 190/1/192 176/3/174 175/4/172
f 184/1/193 185/2/195 170/3/175
f 184/1/193 170/3/175 169/4/173
f 191/1/194 192/2/181 177/3/176
f 191/1/194 177/3/176 176/4/174
f 185/1/195 186/2/183 171/3/177
f 185/1/195 171/3/177 170/4/175
f 205/1/196 206/2/197 191/3/194
f 205/1/196 191/3/194 190/4/192
f 199/1/198 200/2/199 185/3/195
f 199/1/198 185/3/195 184/4/193
f 206/1/197 207/2/200 192/3/181
f 206/1/197 192/3/181 191/4/194
f 200/1/199 201/2/201 186/3/183
f 200/1/199 186/3/183 185/4/195
f 207/1/200 208/2/202 193/3/182
f 207/1/200 193/3/182 192/4/181
f 201/1/201 202/2/203 187/3/184
f 201/1/201 187/3/184 186/4/183
f 208/1/202 209/2/204 194/3/185
f 208/1/202 194/3/185 193/4/182
f 202/1/203 203/2/205 188/3/186
f 202/1/203 188/3/186 187/4/184
f 196/1/206 197/2/207 182/3/188
f 196/1/206 182/3/188 181/4/187
f 209/1/204 210/2/208 195/3/189
f 209/1/204 195/3/189 194/4/185
f 203/1/205 204/2/209 189/3/190
f 203/1/205 189/3/190 188/4/186
f 197/1/207 198/2/210 183/3/191
f 197/1/207 183/3/191 182/4/188
f 204/1/209 205/2/196 190/3/192
f 204/1/209 190/3/192 189/4/190
f 198/1/210 199/2/198 184/3/193
f 198/1/210 184/3/193 183/4/191
f 224/1/211 225/2/212 210/3/208
f 224/1/211 210/3/208 209/4/204
f 218/1/213 219/2/214 204/3/209
f 218/1/213 204/3/209 203/4/205
f 212/1/215 213/2/216 198/3/210
f 212/1/215 198/3/210 197/4/207
f 219/1/214 220/2/217 205/3/196
f 219/1/214 205/3/196 204/4/209
f 213/1/216 214/2/218 199/3/198
f 213/1/216 199/3/198 198/4/210
f 220/1/217 221/2/219 206/3/197
f 220/1/217 206/3/197 205/4/196
f 214/1/218 215/2/220 200/3/199
f 214/1/218 200/3/199 199/4/198
f 221/1/219 222/2/221 207/3/200
f 221/1/219 207/3/200 206/4/197
f 215/1/220 216/2/222 201/3/201
f 215/1/220 201/3/201 200/4/199
f 222/1/221 223/2/223 208/3/202
f 222/1/221 208/3/202 207/4/200
f 216/1/222 217/2/224 202/3/203
f 216/1/222 202/3/203 201/4/201
f 223/1/223 224/2/211 209/3/204
f 223/1/223 209/3/204 208/4/202
f 217/1/224 218/2/213 203/3/205
f 217/1/224 203/3/205 202/4/203
f 211/1/225 212/2/215 197/3/207
f 211/1/225 197/3/207 196/4/206
f 237/1/226 238/2/227 223/3/223
f 237/1/226 223/3/223 222/4/221
f 231/1/228 232/2/229 217/3/224
f 231/1/228 217/3/224 216/4/222
f 238/1/227 239/2/230 224/3/211
f 238/1/227 224/3/211 223/4/223
f 232/1/229 233/2/231 218/3/213
f 232/1/229 218/3/213 217/4/224
f 226/1/232 227/2/233 212/3/215
f 226/1/232 212/3/215 211/4/225
f 239/1/230 240/2/234 225/3/212
f 239/1/230 225/3/212 224/4/211
f 233/1/231 234/2/235 219/3/214
f 233/1/231 219/3/214 218/4/213
f 227/1/233 228/2/236 213/3/216
f 227/1/233 213/3/216 212/4/215
f 234/1/235 235/2/237 220/3/217
f 234/1/235 220/3/217 219/4/214
f 228/1/236 229/2/238 214/3/218
f 228/1/236 214/3/218 213/4/216
f 235/1/237 236/2/239 221/3/219
f 235/1/237 221/3/219 220/4/217
f 229/1/238 230/2/240 215/3/220
f 229/1/238 215/3/220 214/4/218
f 236/1/239 237/2/226 222/3/221
f 236/1/239 222/3/221 221/4/219
f 230/1/240 231/2/228 216/3/222
f 230/1/240 216/3/222 215/4/220
f 250/1/241 251/2/242 236/3/239
f 250/1/241 236/3/239 235/4/237
f 244/1/243 245/2/244 230/3/240
f 244/1/243 230/3/240 229/4/238
f 251/1/242 252/2/245 237/3/226
f 251/1/242 237/3/226 236/4/239
f 245/1/244 246/2/246 231/3/228
f 245/1/244 231/3/228 230/4/240
f 252/1/245 253/2/247 238/3/227
f 252/1/245 238/3/227 237/4/226
f 246/1/246 247/2/248 232/3/229
f 246/1/246 232/3/229 231/4/228
f 253/1/247 254/2/249 239/3/230
f 253/1/247 239/3/230 238/4/227
f 247/1/248 248/2/250 233/3/231
f 247/1/248 233/3/231 232/4/229
f 241/1/251 242/2/252 227/3/233
f 241/1/251 227/3/233 226/4/232
f 254/1/249 255/2/253 240/3/234
f 254/1/249 240/3/234 239/4/230
f 248/1/250 249/2/254 234/3/235
f 248/1/250 234/3/235 233/4/231
f 242/1/252 243/2/255 228/3/236
f 242/1/252 228/3/236 227/4/233
f 249/1/254 250/2/241 235/3/237
f 249/1/254 235/3/237 234/4/235
f 243/1/255 244/2/243 229/3/238
f 243/1/255 229/3/238 228/4/236
f 256/1/256 257/2/257 242/3/252
f 256/1/256 242/3/252 241/4/251
f 269/1/258 270/2/259 255/3/253
f 269/1/258 255/3/253 254/4/249
f 263/1/260 264/2/261 249/3/254
f 263/1/260 249/3/254 248/4/250
f 257/1/257 258/2/262 243/3/255
f 257/1/257 243/3/255 242/4/252
f 264/1/261 265/2/263 250/3/241
f 264/1/261 250/3/241 249/4/254
f 258/1/262 259/2/264 244/3/243
f 258/1/262 244/3/243 243/4/255
f 265/1/263 266/2/265 251/3/242
f 265/1/263 251/3/242 250/4/241
f 259/1/264 260/2/266 245/3/244
f 259/1/264 245/3/244 244/4/243
f 266/1/265 267/2/267 252/3/245
f 266/1/265 252/3/245 251/4/242
f 260/1/266 261/2/268 246/3/246
f 260/1/266 246/3/246 245/4/244
f 267/1/267 268/2/269 253/3/247
f 267/1/267 253/3/247 252/4/245
f 261/1/268 262/2/270 247/3/248
f 261/1/268 247/3/248 246/4/246
f 268/1/269 269/2/258 254/3/249
f 268/1/269 254/3/249 253/4/247
f 262/1/270 263/2/260 248/3/250
f 262/1/270 248/3/250 247/4/248
f 275/1/271 276/2/272 261/3/268
f 275/1/271 261/3/268 260/4/266
f 282/1/273 283/2/274 268/3/269
f 282/1/273 268/3/269 267/4/267
f 276/1/272 277/2/275 262/3/270
f 276/1/272 262/3/270 261/4/268
f 283/1/274 284/2/276 269/3/258
f 283/1/274 269/3/258 268/4/269
f 277/1/275 278/2/277 263/3/260
f 277/1/275 263/3/260 262/4/270
f 271/1/278 272/2/279 257/3/257
f 271/1/278 257/3/257 256/4/256
f 284/1/276 285/2/280 270/3/259
f 284/1/276 270/3/259 269/4/258
f 278/1/277 279/2/281 264/3/261
f 278/1/277 264/3/261 263/4/260
f 272/1/279 273/2/282 258/3/262
f 272/1/279 258/3/262 257/4/257
f 279/1/281 280/2/283 265/3/263
f 279/1/281 265/3/263 264/4/261
f 273/1/282 274/2/284 259/3/264
f 273/1/282 259/3/264 258/4/262
f 280/1/283 281/2/285 266/3/265
f 280/1/283 266/3/265 265/4/263
f 274/1/284 275/2/271 260/3/266
f 274/1/284 260/3/266 259/4/264
f 281/1/285 282/2/273 267/3/267
f 281/1/285 267/3/267 266/4/265
f 294/1/286 295/2/287 280/3/283
f 294/1/286 280/3/283 279/4/281
f 288/1/288 289/2/289 274/3/284
f 288/1/288 274/3/284 273/4/282
f 295/1/287 296/2/290 281/3/285
f 295/1/287 281/3/285 280/4/283
f 289/1/289 290/2/291 275/3/271
f 289/1/289 275/3/271 274/4/284
f 296/1/290 297/2/292 282/3/273
f 296/1/290 282/3/273 281/4/285
f 290/1/291 291/2/293 276/3/272
f 290/1/291 276/3/272 275/4/271
f 297/1/292 298/2/294 283/3/274
f 297/1/292 283/3/274 282/4/273
f 291/1/293 292/2/295 277/3/275
f 291/1/293 277/3/275 276/4/272
f 298/1/294 299/2/296 284/3/276
f 298/1/294 284/3/276 283/4/274
f 292/1/295 293/2/297 278/3/277
f 292/1/295 278/3/277 277/4/275
f 286/1/298 287/2/299 272/3/279
f 286/1/298 272/3/279 271/4/278
f 299/1/296 300/2/300 285/3/280
f 299/1/296 285/3/280 284/4/276
f 293/1/297 294/2/286 279/3/281
f 293/1/297 279/3/281 278/4/277
f 287/1/299 288/2/288 273/3/282
f 287/1/299 273/3/282 272/4/279
f 313/1/301 314/2/302 299/3/296
f 313/1/301 299/3/296 298/4/294
f 307/1/303 308/2/304 293/3/297
f 307/1/303 293/3/297 292/4/295
f 301/1/305 302/2/306 287/3/299
f 301/1/305 287/3/299 286/4/298
f 314/1/302 315/2/307 300/3/300
f 314/1/302 300/3/300 299/4/296
f 308/1/304 309/2/308 294/3/286
f 308/1/304 294/3/286 293/4/297
f 302/1/306 303/2/309 288/3/288
f 302/1/306 288/3/288 287/4/299
f 309/1/308 310/2/310 295/3/287
f 309/1/308 295/3/287 294/4/286
f 303/1/309 304/2/311 289/3/289
f 303/1/309 289/3/289 288/4/288
f 310/1/310 311/2/312 296/3/290
f 310/1/310 296/3/290 295/4/287
f 304/1/311 305/2/313 290/3/291
f 304/1/311 290/3/291 289/4/289
f 311/1/312 312/2/314 297/3/292
f 311/1/312 297/3/292 296/4/290
f 305/1/313 306/2/315 291/3/293
f 305/1/313 291/3/293 290/4/291
f 312/1/314 313/2/301 298/3/294
f 312/1/314 298/3/294 297/4/292
f 306/1/315 307/2/303 292/3/295
f 306/1/315 292/3/295 291/4/293
f 326/1/316 327/2/317 312/3/314
f 326/1/316 312/3/314 311/4/312
f 320/1/318 321/2/319 306/3/315
f 320/1/318 306/3/315 305/4/313
f 327/1/317 328/2/320 313/3/301
f 327/1/317 313/3/301 312/4/314
f 321/1/319 322/2/321 307/3/303
f 321/1/319 307/3/303 306/4/315
f 328/1/320 329/2/322 314/3/302
f 328/1/320 314/3/302 313/4/301
f 322/1/321 323/2/323 308/3/304
f 322/1/321 308/3/304 307/4/303
f 316/1/324 317/2/325 302/3/306
f 316/1/324 302/3/306 301/4/305
f 329/1/322 330/2/326 315/3/307
f 329/1/322 315/3/307 314/4/302
f 323/1/323 324/2/327 309/3/308
f 323/1/323 309/3/308 308/4/304
f 317/1/325 318/2/328 303/3/309
f 317/1/325 303/3/309 302/4/306
f 324/1/327 325/2/329 310/3/310
f 324/1/327 310/3/310 309/4/308
f 318/1/328 319/2/330 304/3/311
f 318/1/328 304/3/311 303/4/309
f 325/1/329 326/2/316 311/3/312
f 325/1/329 311/3/312 310/4/310
f 319/1/330 320/2/318 305/3/313
f 319/1/330 305/3/313 304/4/311
f 340/1/331 341/2/332 325/3/329
f 340/1/331 325/3/329 324/4/327
f 334/1/333 335/2/334 319/3/330
f 334/1/333 319/3/330 318/4/328
f 341/1/332 342/2/335 326/3/316
f 341/1/332 326/3/316 325/4/329
f 335/1/334 336/2/336 320/3/318
f 335/1/334 320/3/318 319/4/330
f 342/1/335 343/2/337 327/3/317
f 342/1/335 327/3/317 326/4/316
f 336/1/336 337/2/338 321/3/319
f 336/1/336 321/3/319 320/4/318
f 343/1/337 344/2/339 328/3/320
f 343/1/337 328/3/320 327/4/317
f 337/1/338 338/2/340 322/3/321
f 337/1/338 322/3/321 321/4/319
f 344/1/339 345/2/341 329/3/322
f 344/1/339 329/3/322 328/4/320
f 338/1/340 339/2/342 323/3/323
f 338/1/340 323/3/323 322/4/321
f 332/1/343 333/2/344 317/3/325
f 332/1/343 317/3/325 316/4/324
f 345/1/341 346/2/345 330/3/326
f 345/1/341 330/3/326 329/4/322
f 339/1/342 340/2/331 324/3/327
f 339/1/342 324/3/327 323/4/323
f 333/1/344 334/2/333 318/3/328
f 333/1/344 318/3/328 317/4/325
f 359/1/346 360/2/347 345/3/341
f 359/1/346 345/3/341 344/4/339
f 353/1/348 354/2/349 339/3/342
f 353/1/348 339/3/342 338/4/340
f 347/1/350 348/2/351 333/3/344
f 347/1/350 333/3/344 332/4/343
f 360/1/347 361/2/352 346/3/345
f 360/1/347 346/3/345 345/4/341
f 354/1/349 355/2/353 340/3/331
f 354/1/349 340/3/331 339/4/342
f 348/1/351 349/2/354 334/3/333
f 348/1/351 334/3/333 333/4/344
f 355/1/353 356/2/355 341/3/332
f 355/1/353 341/3/332 340/4/331
f 349/1/354 350/2/356 335/3/334
f 349/1/354 335/3/334 334/4/333
f 356/1/355 357/2/357 342/3/335
f 356/1/355 342/3/335 341/4/332
f 350/1/356 351/2/358 336/3/336
f 350/1/356 336/3/336 335/4/334
f 357/1/357 358/2/359 343/3/337
f 357/1/357 343/3/337 342/4/335
f 351/1/358 352/2/360 337/3/338
f 351/1/358 337/3/338 336/4/336
f 358/1/359 359/2/346 344/3/339
f 358/1/359 344/3/339 343/4/337
f 352/1/360 353/2/348 338/3/340
f 352/1/360 338/3/340 337/4/338
f 372/1/361 373/2/362 358/3/359
f 372/1/361 358/3/359 357/4/357
f 366/1/363 367/2/364 352/3/360
f 366/1/363 352/3/360 351/4/358
f 373/1/362 374/2/365 359/3/346
f 373/1/362 359/3/346 358/4/359
f 367/1/364 368/2/366 353/3/348
f 367/1/364 353/3/348 352/4/360
f 374/1/365 375/2/367 360/3/347
f 374/1/365 360/3/347 359/4/346
f 368/1/366 369/2/368 354/3/349
f 368/1/366 354/3/349 353/4/348
f 362/1/369 363/2/370 348/3/351
f 362/1/369 348/3/351 347/4/350
f 375/1/367 376/2/371 361/3/352
f 375/1/367 361/3/352 360/4/347
f 369/1/368 370/2/372 355/3/353
f 369/1/368 355/3/353 354/4/349
f 363/1/370 364/2/373 349/3/354
f 363/1/370 349/3/354 348/4/351
f 370/1/372 371/2/374 356/3/355
f 370/1/372 356/3/355 355/4/353
f 364/1/373 365/2/375 350/3/356
f 364/1/373 350/3/356 349/4/354
f 371/1/374 372/2/361 357/3/357
f 371/1/374 357/3/357 356/4/355
f 365/1/375 366/2/363 351/3/358
f 365/1/375 351/3/358 350/4/356
f 385/1/376 386/2/377 371/3/374
f 385/1/376 371/3/374 370/4/372
f 379/1/378 380/2/379 365/3/375
f 379/1/378 365/3/375 364/4/373
f 386/1/377 387/2/380 372/3/361
f 386/1/377 372/3/361 371/4/374
f 380/1/379 381/2/381 366/3/363
f 380/1/379 366/3/363 365/4/375
f 387/1/380 388/2/382 373/3/362
f 387/1/380 373/3/362 372/4/361
f 381/1/381 382/2/383 367/3/364
f 381/1/381 367/3/364 366/4/363
f 388/1/382 389/2/384 374/3/365
f 388/1/382 374/3/365 373/4/362
f 382/1/383 383/2/385 368/3/366
f 382/1/383 368/3/366 367/4/364
f 389/1/384 390/2/386 375/3/367
f 389/1/384 375/3/367 374/4/365
f 383/1/385 384/2/387 369/3/368
f 383/1/385 369/3/368 368/4/366
f 377/1/388 378/2/389 363/3/370
f 377/1/388 363/3/370 362/4/369
f 390/1/386 391/2/390 376/3/371
f 390/1/386 376/3/371 375/4/367
f 384/1/387 385/2/376 370/3/372
f 384/1/387 370/3/372 369/4/368
f 378/1/389 379/2/378 364/3/373
f 378/1/389 364/3/373 363/4/370
f 404/1/391 405/2/392 390/3/386
f 404/1/391 390/3/386 389/4/384
f 398/1/393 399/2/394 384/3/387
f 398/1/393 384/3/387 383/4/385
f 392/1/395 393/2/396 378/3/389
f 392/1/395 378/3/389 377/4/388
f 405/1/392 406/2/397 391/3/390
f 405/1/392 391/3/390 390/4/386
f 399/1/394 400/2/398 385/3/376
f 399/1/394 385/3/376 384/4/387
f 393/1/396 394/2/399 379/3/378
f 393/1/396 379/3/378 378/4/389
f 400/1/398 401/2/400 386/3/377
f 400/1/398 386/3/377 385/4/376
f 394/1/399 395/2/401 380/3/379
f 394/1/399 380/3/379 379/4/378
f 401/1/400 402/2/402 387/3/380
f 401/1/400 387/3/380 386/4/377
f 395/1/401 396/2/403 381/3/381
f 395/1/401 381/3/381 380/4/379
f 402/1/402 403/2/404 388/3/382
f 402/1/402 388/3/382 387/4/380
f 396/1/403 397/2/405 382/3/383
f 396/1/403 382/3/383 381/4/381
f 403/1/404 404/2/391 389/3/384
f 403/1/404 389/3/384 388/4/382
f 397/1/405 398/2/393 383/3/385
f 397/1/405 383/3/385 382/4/383
f 410/1/406 411/2/407 396/3/403
f 410/1/406 396/3/403 395/4/401
f 417/1/408 418/2/409 403/3/404
f 417/1/408 403/3/404 402/4/402
f 411/1/407 412/2/410 397/3/405
f 411/1/407 397/3/405 396/4/403
f 418/1/409 419/2/411 404/3/391
f 418/1/409 404/3/391 403/4/404
f 412/1/410 413/2/412 398/3/393
f 412/1/410 398/3/393 397/4/405
f 419/1/411 420/2/413 405/3/392
f 419/1/411 405/3/392 404/4/391
f 413/1/412 414/2/414 399/3/394
f 413/1/412 399/3/394 398/4/393
f 407/1/415 408/2/416 393/3/396
f 407/1/415 393/3/396 392/4/395
f 420/1/413 421/2/417 406/3/397
f 420/1/413 406/3/397 405/4/392
f 414/1/414 415/2/418 400/3/398
f 414/1/414 400/3/398 399/4/394
f 408/1/416 409/2/419 394/3/399
f 408/1/416 394/3/399 393/4/396
f 415/1/418 416/2/420 401/3/400
f 415/1/418 401/3/400 400/4/398
f 409/1/419 410/2/406 395/3/401
f 409/1/419 395/3/401 394/4/399
f 416/1/420 417/2/408 402/3/402
f 416/1/420 402/3/402 401/4/400
f 429/1/421 430/2/422 415/3/418
f 429/1/421 415/3/418 414/4/414
f 423/1/423 424/2/424 409/3/419
f 423/1/423 409/3/419 408/4/416
f 430/1/422 431/2/425 416/3/420
f 430/1/422 416/3/420 415/4/418
f 424/1/424 425/2/426 410/3/406
f 424/1/424 410/3/406 409/4/419
f 431/1/425 432/2/427 417/3/408
f 431/1/425 417/3/408 416/4/420
f 425/1/426 426/2/428 411/3/407
f 425/1/426 411/3/407 410/4/406
f 432/1/427 433/2/429 418/3/409
f 432/1/427 418/3/409 417/4/408
f 426/1/428 427/2/430 412/3/410
f 426/1/428 412/3/410 411/4/407
f 433/1/429 434/2/431 419/3/411
f 433/1/429 419/3/411 418/4/409
f 427/1/430 428/2/432 413/3/412
f 427/1/430 413/3/412 412/4/410
f 434/1/431 435/2/433 420/3/413
f 434/1/431 420/3/413 419/4/411
f 428/1/432 429/2/421 414/3/414
f 428/1/432 414/3/414 413/4/412
f 422/1/434 423/2/423 408/3/416
f 422/1/434 408/3/416 407/4/415
f 435/1/433 436/2/435 421/3/417
f 435/1/433 421/3/417 420/4/413
f 449/1/436 450/2/437 434/3/431
f 449/1/436 434/3/431 433/4/429
f 443/1/438 444/2/439 428/3/432
f 443/1/438 428/3/432 427/4/430
f 450/1/437 451/2/440 435/3/433
f 450/1/437 435/3/433 434/4/431
f 444/1/439 445/2/441 429/3/421
f 444/1/439 429/3/421 428/4/432
f 438/1/442 439/2/443 423/3/423
f 438/1/442 423/3/423 422/4/434
f 451/1/440 452/2/444 436/3/435
f 451/1/440 436/3/435 435/4/433
f 445/1/441 446/2/445 430/3/422
f 445/1/441 430/3/422 429/4/421
f 439/1/443 440/2/446 424/3/424
f 439/1/443 424/3/424 423/4/423
f 446/1/445 447/2/447 431/3/425
f 446/1/445 431/3/425 430/4/422
f 440/1/446 441/2/448 425/3/426
f 440/1/446 425/3/426 424/4/424
f 447/1/447 448/2/449 432/3/427
f 447/1/447 432/3/427 431/4/425
f 441/1/448 442/2/450 426/3/428
f 441/1/448 426/3/428 425/4/426
f 448/1/449 449/2/436 433/3/429
f 448/1/449 433/3/429 432/4/427
f 442/1/450 443/2/438 427/3/430
f 442/1/450 427/3/430 426/4/428
f 462/1/451 463/2/452 448/3/449
f 462/1/451 448/3/449 447/4/447
f 456/1/453 457/2/454 442/3/450
f 456/1/453 442/3/450 441/4/448
f 463/1/452 464/2/455 449/3/436
f 463/1/452 449/3/436 448/4/449
f 457/1/454 458/2/456 443/3/438
f 457/1/454 443/3/438 442/4/450
f 464/1/455 465/2/457 450/3/437
f 464/1/455 450/3/437 449/4/436
f 458/1/456 459/2/458 444/3/439
f 458/1/456 444/3/439 443/4/438
f 465/1/457 466/2/459 451/3/440
f 465/1/457 451/3/440 450/4/437
f 459/1/458 460/2/460 445/3/441
f 459/1/458 445/3/441 444/4/439
f 453/1/461 454/2/462 439/3/443
f 453/1/461 439/3/443 438/4/442
f 466/1/459 467/2/463 452/3/444
f 466/1/459 452/3/444 451/4/440
f 460/1/460 461/2/464 446/3/445
f 460/1/460 446/3/445 445/4/441
f 454/1/462 455/2/465 440/3/446
f 454/1/462 440/3/446 439/4/443
f 461/1/464 462/2/451 447/3/447
f 461/1/464 447/3/447 446/4/445
f 455/1/465 456/2/453 441/3/448
f 455/1/465 441/3/448 440/4/446
f 481/1/466 482/2/467 467/3/463
f 481/1/466 467/3/463 466/4/459
f 475/1/468 476/2/469 461/3/464
f 475/1/468 461/3/464 460/4/460
f 469/1/470 470/2/471 455/3/465
f 469/1/470 455/3/465 454/4/462
f 476/1/469 477/2/472 462/3/451
f 476/1/469 462/3/451 461/4/464
f 470/1/471 471/2/473 456/3/453
f 470/1/471 456/3/453 455/4/465
f 477/1/472 478/2/474 463/3/452
f 477/1/472 463/3/452 462/4/451
f 471/1/473 472/2/475 457/3/454
f 471/1/473 457/3/454 456/4/453
f 478/1/474 479/2/476 464/3/455
f 478/1/474 464/3/455 463/4/452
f 472/1/475 473/2/477 458/3/456
f 472/1/475 458/3/456 457/4/454
f 479/1/476 480/2/478 465/3/457
f 479/1/476 465/3/457 464/4/455
f 473/1/477 474/2/479 459/3/458
f 473/1/477 459/3/458 458/4/456
f 480/1/478 481/2/466 466/3/459
f 480/1/478 466/3/459 465/4/457
f 474/1/479 475/2/468 460/3/460
f 474/1/479 460/3/460 459/4/458
f 468/1/480 469/2/470 454/3/462
f 468/1/480 454/3/462 453/4/461
f 30/1/13 331/2/481 15/3/14
f 16/2/11 1/3/10 437/1/482
f 45/1/45 331/2/481 30/3/13
f 437/1/482 31/2/43 16/3/11
f 60/1/52 331/2/481 45/3/45
f 437/1/482 46/2/50 31/3/43
f 437/1/482 61/2/69 46/3/50
f 75/1/71 331/2/481 60/3/52
f 90/1/90 331/2/481 75/3/71
f 437/1/482 76/2/88 61/3/69
f 105/1/97 331/2/481 90/3/90
f 437/1/482 91/2/95 76/3/88
f 437/1/482 106/2/114 91/3/95
f 120/1/116 331/2/481 105/3/97
f 135/1/135 331/2/481 120/3/116
f 437/1/482 121/2/134 106/3/114
f 437/1/482 136/2/141 121/3/134
f 150/1/143 331/2/481 135/3/135
f 437/1/482 151/2/161 136/3/141
f 165/1/163 331/2/481 150/3/143
f 180/1/167 331/2/481 165/3/163
f 437/1/482 166/2/180 151/3/161
f 437/1/482 181/2/187 166/3/180
f 195/1/189 331/2/481 180/3/167
f 437/1/482 196/2/206 181/3/187
f 210/1/208 331/2/481 195/3/189
f 225/1/212 331/2/481 210/3/208
f 437/1/482 211/2/225 196/3/206
f 437/1/482 226/2/232 211/3/225
f 240/1/234 331/2/481 225/3/212
f 437/1/482 241/2/251 226/3/232
f 255/1/253 331/2/481 240/3/234
f 270/1/259 331/2/481 255/3/253
f 437/1/482 256/2/256 241/3/251
f 437/1/482 271/2/278 256/3/256
f 285/1/280 331/2/481 270/3/259
f 437/1/482 286/2/298 271/3/278
f 300/1/300 331/2/481 285/3/280
f 315/1/307 331/2/481 300/3/300
f 437/1/482 301/2/305 286/3/298
f 437/1/482 316/2/324 301/3/305
f 330/1/326 331/2/481 315/3/307
f 346/1/345 331/2/481 330/3/326
f 437/1/482 332/2/343 316/3/324
f 361/1/352 331/2/481 346/3/345
f 437/1/482 347/2/350 332/3/343
f 437/1/482 362/2/369 347/3/350
f 376/1/371 331/2/481 361/3/352
f 391/1/390 331/2/481 376/3/371
f 437/1/482 377/2/388 362/3/369
f 437/1/482 392/2/395 377/3/388
f 406/1/397 331/2/481 391/3/390
f 437/1/482 407/2/415 392/3/395
f 421/1/417 331/2/481 406/3/397
f 436/1/435 331/2/481 421/3/417
f 437/1/482 422/2/434 407/3/415
f 437/1/482 438/2/442 422/3/434
f 452/1/444 331/2/481 436/3/435
f 437/1/482 453/2/461 438/3/442
f 467/1/463 331/2/481 452/3/444
f 482/1/467 331/2/481 467/3/463
f 437/1/482 468/2/480 453/3/461
f 12/1/28 13/2/4 480/3/478
f 12/1/28 480/3/478 479/4/476
f 6/1/30 7/2/8 474/3/479
f 6/1/30 474/3/479 473/4/477
f 437/1/482 1/2/10 468/3/480
f 13/1/4 14/2/3 481/3/466
f 13/1/4 481/3/466 480/4/478
f 7/1/8 8/2/7 475/3/468
f 7/1/8 475/3/468 474/4/479
f 1/1/10 2/2/9 469/3/470
f 1/1/10 469/3/470 468/4/480
f 14/1/3 15/2/14 482/3/467
f 14/1/3 482/3/467 481/4/466
f 8/1/7 9/2/16 476/3/469
f 8/1/7 476/3/469 475/4/468
f 2/1/9 3/2/18 470/3/471
f 2/1/9 470/3/471 469/4/470
f 15/1/14 331/2/481 482/3/467
f 9/1/16 10/2/20 477/3/472
f 9/1/16 477/3/472 476/4/469
f 3/1/18 4/2/22 471/3/473
f 3/1/18 471/3/473 470/4/471
f 10/1/20 11/2/24 478/3/474
f 10/1/20 478/3/474 477/4/472
f 4/1/22 5/2/26 472/3/475
f 4/1/22 472/3/475 471/4/473
f 11/1/24 12/2/28 479/3/476
f 11/1/24 479/3/476 478/4/474
f 5/1/26 6/2/30 473/3/477
f 5/1/26 473/3/477 472/4/475
